data_exploration
…
education <- all_dkl %>% 
    filter(group_label == "Education attainment") %>%
    select(year, block_fips, label, block_pct, block_estimate, block_total, dkl_block) %>%
    distinct()

education %>%
  filter(year == 2020) %>%
  group_by(label) %>%
  summarise(sum_tot = sum(block_estimate)) %>%
  arrange(desc(sum_tot)) %>%
  mutate(p = sum_tot/sum(sum_tot) * 100)

## # A tibble: 24 × 3
##    label                                    sum_tot     p
##    <chr>                                      <dbl> <dbl>
##  1 Bachelor's degree                        2234459 23.7 
##  2 Regular high school diploma              2000194 21.2 
##  3 Some college, 1 or more years, no degree 1261427 13.4 
##  4 Master's degree                          1011539 10.7 
##  5 Associate's degree                        729485  7.73
##  6 Some college, less than 1 year            562224  5.96
##  7 GED or alternative credential             298834  3.17
##  8 Professional school degree                244617  2.59
##  9 12th grade, no diploma                    173192  1.84
## 10 Doctorate degree                          143128  1.52
## # ℹ 14 more rows
…
